<?xml version="1.0" encoding="utf-8" standalone="yes"?>

<pattrstorage name = "u408004086">
	<slot number = "1">
		<patcher name = "LedPar">
			<patcher name = "_LedPar">
				<pattr name = "B" value = "255" />
				<pattr name = "G" value = "255" />
				<pattr name = "Macro" value = "0" />
				<pattr name = "Mode" value = "Color" />
				<pattr name = "R" value = "255" />
				<pattr name = "speed" value = "0" />
			</patcher>
		</patcher>
	</slot>
</pattrstorage>

